<?xml version="1.0" encoding="UTF-8" standalone="no"?>
<svg width="8px" height="13px" viewBox="0 0 8 13" version="1.1" xmlns="http://www.w3.org/2000/svg" xmlns:xlink="http://www.w3.org/1999/xlink" xmlns:sketch="http://www.bohemiancoding.com/sketch/ns">
    <!-- Generator: Sketch 3.4.4 (17249) - http://www.bohemiancoding.com/sketch -->
    <title>Fill 280 Copy 4</title>
    <desc>Created with Sketch.</desc>
    <defs></defs>
    <g id="Page-1" stroke="none" stroke-width="1" fill="none" fill-rule="evenodd" sketch:type="MSPage">
        <g id="Mobile-Portrait-Copy-2" sketch:type="MSArtboardGroup" transform="translate(-294.000000, -542.000000)" fill="#4A4A4A">
            <path d="M294.152305,553.031293 L295.42562,554.303993 C295.535995,554.401418 295.646986,554.456297 295.785109,554.456297 C295.909665,554.456297 296.034222,554.401418 296.131648,554.303993 L301.861261,548.57438 C301.95807,548.477571 302,548.366579 302,548.228457 C302,548.089718 301.95807,547.979343 301.861261,547.882534 L296.131648,542.152305 C296.034222,542.055496 295.909665,542 295.785109,542 C295.646986,542 295.535995,542.055496 295.42562,542.152305 L294.152305,543.439803 C294.055496,543.536612 294,543.646986 294,543.785725 C294,543.910282 294.055496,544.034839 294.152305,544.131648 L298.249114,548.228457 L294.152305,552.325266 C294.055496,552.435641 294,552.546632 294,552.684754 C294,552.809311 294.055496,552.933868 294.152305,553.031293" id="Fill-280-Copy-4" sketch:type="MSShapeGroup" transform="translate(298.000000, 548.228149) scale(1, -1) translate(-298.000000, -548.228149) "></path>
        </g>
    </g>
</svg>