<?xml version="1.0" encoding="UTF-8" standalone="no"?>
<svg width="34px" height="34px" viewBox="0 0 34 34" version="1.1" xmlns="http://www.w3.org/2000/svg" xmlns:xlink="http://www.w3.org/1999/xlink" xmlns:sketch="http://www.bohemiancoding.com/sketch/ns">
    <!-- Generator: Sketch 3.4.4 (17249) - http://www.bohemiancoding.com/sketch -->
    <title>Oval 9 + fa-ticket + +</title>
    <desc>Created with Sketch.</desc>
    <defs></defs>
    <g id="Page-1" stroke="none" stroke-width="1" fill="none" fill-rule="evenodd" sketch:type="MSPage">
        <g id="Tickets-#1---Main-View" sketch:type="MSArtboardGroup" transform="translate(-271.000000, -15.000000)">
            <g id="Oval-9-+-fa-ticket-+-+" sketch:type="MSLayerGroup" transform="translate(272.000000, 16.000000)">
                <circle id="Oval-9" stroke="#FFFFFF" sketch:type="MSShapeGroup" cx="16" cy="16" r="16"></circle>
                <g id="fa-ticket" transform="translate(3.000000, 3.000000)" fill="#ECF0F1" sketch:type="MSShapeGroup">
                    <path d="M1.34678261,13.5787826 L2.82747826,15.1025217 C3.27895652,14.652 3.81556522,14.4157391 4.45930435,14.4157391 C5.104,14.4157391 5.6406087,14.652 6.09113043,15.1025217 C6.5426087,15.532 6.75686957,16.0906087 6.75686957,16.7133043 C6.75686957,17.3570435 6.5426087,17.8936522 6.09113043,18.3451304 L7.59382609,19.8688696 C7.89513043,20.1481739 8.25956522,20.2983478 8.68904348,20.2983478 C9.11852174,20.2983478 9.48391304,20.1481739 9.76226087,19.8688696 L20.6264348,8.98365217 C20.9267826,8.68330435 21.0769565,8.31886957 21.0769565,7.8893913 C21.0769565,7.48095652 20.9267826,7.11652174 20.6264348,6.81521739 L19.1237391,5.31252174 C18.6722609,5.764 18.1356522,5.97826087 17.491913,5.97826087 C16.8692174,5.97826087 16.3106087,5.764 15.860087,5.31252174 C15.4306087,4.862 15.1943478,4.3253913 15.1943478,3.68069565 C15.1943478,3.058 15.4306087,2.50034783 15.860087,2.04886957 L14.3784348,0.568173913 C14.078087,0.266869565 13.7126957,0.116695652 13.2832174,0.116695652 C12.8546957,0.116695652 12.4893043,0.266869565 12.21,0.568173913 L1.34678261,11.4103478 C1.04547826,11.7106957 0.895304348,12.076087 0.895304348,12.5055652 C0.895304348,12.934087 1.04547826,13.2784348 1.34678261,13.5787826 L1.34678261,13.5787826 Z M4.5673913,11.1951304 L11.9737391,3.78878261 C12.1248696,3.65965217 12.296087,3.57356522 12.5103478,3.57356522 C12.7255652,3.57356522 12.9187826,3.65965217 13.047913,3.78878261 L17.3847826,8.12565217 C17.5349565,8.27582609 17.6210435,8.46904348 17.6210435,8.66226087 C17.6210435,8.87652174 17.5349565,9.04869565 17.3847826,9.21991304 L9.99852174,16.6061739 C9.84834783,16.7563478 9.65513043,16.8204348 9.44086957,16.8204348 C9.22565217,16.8204348 9.05443478,16.7563478 8.90426087,16.6061739 L4.5673913,12.2693043 C4.41626087,12.1191304 4.35217391,11.9469565 4.35217391,11.7317391 C4.35217391,11.5385217 4.41626087,11.3453043 4.5673913,11.1951304 L4.5673913,11.1951304 Z M9.46191304,15.532 L16.3106087,8.66226087 L12.5103478,4.88304348 L5.66165217,11.7317391 L9.46191304,15.532 L9.46191304,15.532 Z" id="Fill-197"></path>
                </g>
                <text id="+" sketch:type="MSTextLayer" font-family="Lato" font-size="18" font-weight="normal" fill="#ECF0F1">
                    <tspan x="16" y="29">+</tspan>
                </text>
            </g>
        </g>
    </g>
</svg>